id	name	team	tier	description	tags
shop-frontend	Shop Frontend	shop	Tier-1	The main web shop frontend application.	dc:dc2,24x7
cart-service	Cart Service	shop	Tier-1	REST API to store user cart items.	dc:dc1
checkout-service	Checkout Service	backend	Tier-1		dc:dc2,24x7
order-processing	Order Processing	backend	Tier-1		dc:dc1,24x7
stock-service	Stock Service	backend	Tier-1
product-search	Product Search	product-experience	Tier-1	Search API for products	dc:dc2
product-store	Product Store	product-experience	Tier-2
tracking	Tracking	tracking	Tier-3	Tracking endpoint	dc:dc2
hr-system	HR System	hr	n/a	Human Resources system	dc:dc1
quote-service	Quote Service	backend	Tier-1	Quote a cart for checkout
product-admin-ui	Product Admin UI	product-experience	Tier-3	Admin frontend	type:ui,dc:dc1
